<?xml version="1.0" encoding="UTF-8"?>
<kml xmlns="http://www.opengis.net/kml/2.2">
  <Document>
    <name>Chamber of Trade</name>
    <description/>
    <NetworkLink>
      <name>Chamber of Trade</name>
      <Link>
        <href><![CDATA[http://www.google.com/maps/d/kml?forcekml=1&mid=1idTJZfWKAFv9SuCnzkdQj93qUyvjzHyh]]></href>
      </Link>
    </NetworkLink>
  </Document>
</kml>
